<svg width="15" height="16" viewBox="0 0 15 16" fill="none" xmlns="http://www.w3.org/2000/svg">
<path d="M0 7.94141H15" stroke="black" stroke-width="2"/>
<path d="M7.5 0.441406L7.5 15.4414" stroke="black" stroke-width="2"/>
</svg>
