<svg width="90" height="90" viewBox="0 0 90 90" fill="none" xmlns="http://www.w3.org/2000/svg">
<g filter="url(#filter0_d_1085_775)">
<circle cx="45" cy="45" r="30" fill="white"/>
<path d="M54.8272 45.5171H34.6548M34.6548 45.5171L41.3789 38.793M34.6548 45.5171L41.3789 52.2412" stroke="#CE0E2D" stroke-width="2.58621" stroke-linejoin="round"/>
</g>
<defs>
<filter id="filter0_d_1085_775" x="0" y="0" width="90" height="90" filterUnits="userSpaceOnUse" color-interpolation-filters="sRGB">
<feFlood flood-opacity="0" result="BackgroundImageFix"/>
<feColorMatrix in="SourceAlpha" type="matrix" values="0 0 0 0 0 0 0 0 0 0 0 0 0 0 0 0 0 0 127 0" result="hardAlpha"/>
<feOffset/>
<feGaussianBlur stdDeviation="7.5"/>
<feComposite in2="hardAlpha" operator="out"/>
<feColorMatrix type="matrix" values="0 0 0 0 0 0 0 0 0 0 0 0 0 0 0 0 0 0 0.16 0"/>
<feBlend mode="normal" in2="BackgroundImageFix" result="effect1_dropShadow_1085_775"/>
<feBlend mode="normal" in="SourceGraphic" in2="effect1_dropShadow_1085_775" result="shape"/>
</filter>
</defs>
</svg>
